{
  "project_info": {
    "project_number": "607002463030",
    "firebase_url": "https://ideaapp-3255c.firebaseio.com",
    "project_id": "ideaapp-3255c",
    "storage_bucket": "ideaapp-3255c.appspot.com"
  },
  "client": [
    {
      "client_info": {
        "mobilesdk_app_id": "1:607002463030:android:524f961f41f76e43",
        "android_client_info": {
          "package_name": "com.karolapp.ideaapp"
        }
      },
      "oauth_client": [
        {
          "client_id": "607002463030-k6qliucf6blue950p3p2u6kf788t40dg.apps.googleusercontent.com",
          "client_type": 1,
          "android_info": {
            "package_name": "com.karolapp.ideaapp",
            "certificate_hash": "3e5c7a015ba447ec43418216b0dbebf0d26d27c9"
          }
        },
        {
          "client_id": "607002463030-v6ojehccqcrge4tvpcpers5jsse4ptf7.apps.googleusercontent.com",
          "client_type": 3
        }
      ],
      "api_key": [
        {
          "current_key": "AIzaSyAy75e5OhudnRZfSpeV4umCaXYS5JfMlwY"
        }
      ],
      "services": {
        "appinvite_service": {
          "other_platform_oauth_client": [
            {
              "client_id": "607002463030-v6ojehccqcrge4tvpcpers5jsse4ptf7.apps.googleusercontent.com",
              "client_type": 3
            }
          ]
        }
      }
    }
  ],
  "configuration_version": "1"
}